<?xml version='1.0' encoding='UTF-8'?>
<osm version='0.6' generator='JOSM'>
  <node id='31333894' timestamp='2015-01-30T14:57:32Z' uid='1122708' user='zaizone' version='3' changeset='28506409' lat='45.7798094' lon='3.078673' />
  <node id='31333932' timestamp='2009-03-15T09:00:24Z' uid='4363' user='Pmz' version='2' changeset='811195' lat='45.7795784' lon='3.0789976'>
    <tag k='created_by' v='JOSM' />
  </node>
  <node id='31333933' timestamp='2009-03-15T09:00:24Z' uid='4363' user='Pmz' version='2' changeset='811195' lat='45.7794501' lon='3.0792771'>
    <tag k='created_by' v='JOSM' />
  </node>
  <node id='31333934' timestamp='2009-03-15T09:00:24Z' uid='4363' user='Pmz' version='2' changeset='811195' lat='45.7792994' lon='3.0798464'>
    <tag k='created_by' v='JOSM' />
  </node>
  <node id='31333937' timestamp='2012-10-29T17:06:22Z' uid='33634' user='lapinos03' version='2' changeset='13675973' lat='45.7792751' lon='3.0804506' />
  <node id='31333938' timestamp='2012-10-29T17:06:22Z' uid='33634' user='lapinos03' version='2' changeset='13675973' lat='45.779316' lon='3.0805772' />
  <node id='31333939' timestamp='2012-10-29T17:06:22Z' uid='33634' user='lapinos03' version='4' changeset='13675973' lat='45.7793992' lon='3.0806835' />
  <node id='31333941' timestamp='2012-10-29T17:06:22Z' uid='33634' user='lapinos03' version='2' changeset='13675973' lat='45.7798609' lon='3.0807013' />
  <node id='31333942' timestamp='2009-03-15T09:00:25Z' uid='4363' user='Pmz' version='2' changeset='811195' lat='45.780358' lon='3.0806034'>
    <tag k='created_by' v='JOSM' />
  </node>
  <node id='482957362' timestamp='2015-01-30T14:57:32Z' uid='1122708' user='zaizone' version='2' changeset='28506409' lat='45.7795142' lon='3.0791023' />
  <node id='1819061032' timestamp='2015-01-30T14:57:31Z' uid='1122708' user='zaizone' version='2' changeset='28506409' lat='45.7794803' lon='3.0791813' />
  <node id='1827042753' timestamp='2012-07-15T22:12:45Z' uid='49047' user='vincent_95' version='1' changeset='12236859' lat='45.7793543' lon='3.079639' />
  <node id='1827042770' timestamp='2012-07-15T22:12:45Z' uid='49047' user='vincent_95' version='1' changeset='12236859' lat='45.7796934' lon='3.0788326' />
  <node id='1827042781' timestamp='2012-07-15T22:12:46Z' uid='49047' user='vincent_95' version='1' changeset='12236859' lat='45.7800722' lon='3.0806553' />
  <node id='1988511073' timestamp='2012-10-29T17:06:21Z' uid='33634' user='lapinos03' version='1' changeset='13675973' lat='45.7794748' lon='3.0807096' />
  <node id='2902501986' timestamp='2014-06-06T09:09:57Z' uid='1122708' user='zaizone' version='1' changeset='22770944' lat='45.7793752' lon='3.0795602' />
  <node id='2902501987' timestamp='2014-06-06T09:09:57Z' uid='1122708' user='zaizone' version='1' changeset='22770944' lat='45.7793399' lon='3.0796934' />
  <node id='3320903047' timestamp='2015-01-30T14:57:21Z' uid='1122708' user='zaizone' version='1' changeset='28506409' lat='45.7797533' lon='3.07875'>
    <tag k='highway' v='crossing' />
  </node>
  <way id='171713785' action='modify' timestamp='2012-10-29T17:06:22Z' uid='33634' user='lapinos03' version='2' changeset='13675973'>
    <nd ref='31333894' />
    <nd ref='3320903047' />
    <nd ref='1827042770' />
    <nd ref='31333932' />
    <nd ref='482957362' />
    <nd ref='1819061032' />
    <nd ref='31333933' />
    <nd ref='2902501986' />
    <nd ref='1827042753' />
    <nd ref='2902501987' />
    <nd ref='31333934' />
    <nd ref='31333937' />
    <nd ref='31333938' />
    <nd ref='31333939' />
    <nd ref='1988511073' />
    <nd ref='31333941' />
    <nd ref='1827042781' />
    <nd ref='31333942' />
    <tag k='highway' v='residential' />
    <tag k='name' v='Rue de l&apos;Ange;Rue des Vieillards' />
    <tag k='oneway' v='yes' />
    <tag k='source' v='cadastre-dgi-fr source : Direction Générale des Impôts - Cadastre. Mise à jour : 2012' />
  </way>
</osm>
