3.0806034 45.780358
3.0801727 45.7803529
3.0800705 45.7803701
3.080039 45.7803823
3.0800044 45.7803967
3.0799237 45.7804329
3.0798093 45.7804647
3.0797733 45.780444
3.079713 45.7804232
3.0796644 45.7803807
3.0796179 45.7803141
3.0795825 45.7802304
3.0795522 45.7801846
3.0794979 45.7801564
3.0791567 45.7800214
3.0788453 45.7798831
3.0787868 45.7798567
3.078673 45.7798094
