3.0766611 45.7807492
3.0767481 45.7807381
3.0768173 45.7807312
3.0770087 45.780726
3.0771559 45.780739
3.0773448 45.780768
3.0775355 45.7808006
3.0777162 45.7808239
3.0778424 45.7808295
3.0779574 45.7808301
3.0785018 45.7808327
3.0787109 45.7808361
3.0795281 45.7808543
3.079673 45.7808554
3.0798179 45.7808566
3.0802055 45.7808559
3.0808442 45.7808607
3.0811895 45.7808597
3.0812668 45.7808499
3.0813414 45.7808191
3.081579 45.7806513
3.0817486 45.7805096
